<?xml version="1.0" encoding="UTF-8"?>
<svg width="402px" height="402px" viewBox="0 0 402 402" version="1.1" xmlns="http://www.w3.org/2000/svg" xmlns:xlink="http://www.w3.org/1999/xlink">
    <!-- Generator: Sketch 51.3 (57544) - http://www.bohemiancoding.com/sketch -->
    <title>check-box-empty</title>
    <desc>Created with Sketch.</desc>
    <defs></defs>
    <g id="Page-1" stroke="none" stroke-width="1" fill="none" fill-rule="evenodd">
        <g id="check-box-empty" fill="#007AFF" fill-rule="nonzero">
            <g id="check-box-full">
                <path d="M377.87,24.126 C361.786,8.042 342.417,0 319.769,0 L82.227,0 C59.579,0 40.211,8.042 24.125,24.126 C8.044,40.212 0.002,59.576 0.002,82.228 L0.002,319.771 C0.002,342.418 8.044,361.785 24.125,377.872 C40.211,393.957 59.579,401.999 82.227,401.999 L319.769,401.999 C342.417,401.999 361.78,393.957 377.871,377.872 C393.956,361.785 401.997,342.419 401.997,319.771 L401.997,82.228 C401.993,59.58 393.951,40.212 377.87,24.126 Z M365.448,319.771 C365.448,332.33 360.978,343.085 352.033,352.035 C343.088,360.98 332.335,365.446 319.768,365.446 L82.227,365.446 C69.664,365.446 58.91,360.98 49.963,352.035 C41.018,343.086 36.545,332.33 36.545,319.771 L36.545,82.228 C36.545,69.666 41.018,58.912 49.963,49.964 C58.91,41.018 69.664,36.546 82.227,36.546 L319.769,36.546 C332.335,36.546 343.088,41.019 352.034,49.964 C360.979,58.911 365.449,69.665 365.449,82.228 L365.449,319.771 L365.448,319.771 Z" id="Shape"></path>
            </g>
        </g>
    </g>
</svg>